{"help": "https://data.gov.hr/ckan/api/3/action/help_show?name=datastore_search", "success": true, "result": {"include_total": true, "resource_id": "38028d1a-dc59-4023-bc87-6b8fa22c6951", "fields": [{"type": "int", "id": "_id"}, {"type": "text", "id": "Name"}, {"type": "text", "id": "Description"}, {"type": "numeric", "id": "Broj stalaka"}, {"type": "numeric", "id": "Broj bicikala"}, {"type": "numeric", "id": "Longitude"}, {"type": "numeric", "id": "Latitude"}, {"type": "text", "id": "Navigiraj do:"}], "records_format": "objects", "records": [{"_id":1,"Name":"Akademija Dramskih Umjetnosti","Description":"Trg Hrvatske Republike","Broj stalaka":24,"Broj bicikala":48,"Longitude":15.970680068522812,"Latitude":45.80881521835322,"Navigiraj do:":"https://goo.gl/maps/ReeQyR2eXZVSrPYaA"},{"_id":2,"Name":"Albaharijeva 2","Description":"Albaharijeva 2","Broj stalaka":3,"Broj bicikala":6,"Longitude":15.949996630470318,"Latitude":45.790865570187634,"Navigiraj do:":"https://goo.gl/maps/y7VuxYWLp3QEjTmRA"},{"_id":3,"Name":"Antuna Nemčića 1","Description":"Ulica Antuna Nemčića","Broj stalaka":5,"Broj bicikala":10,"Longitude":15.998018357432434,"Latitude":45.814474555648516,"Navigiraj do:":"https://goo.gl/maps/yuEFrrfpsEwygYJi7"},{"_id":4,"Name":"Autobusni kolodvor","Description":"Avenija Marina Držića","Broj stalaka":6,"Broj bicikala":12,"Longitude":15.993271596165869,"Latitude":45.804413000261924,"Navigiraj do:":"https://goo.gl/maps/6uJN6FtAQVg1vfxx6"},{"_id":5,"Name":"Avenija Dubrovnik 15a","Description":"Avenija Dubrovnik","Broj stalaka":8,"Broj bicikala":16,"Longitude":15.970063970705542,"Latitude":45.77756345238385,"Navigiraj do:":"https://goo.gl/maps/CTNiVnTVj34CDG9F9"},{"_id":6,"Name":"Bjelovarska/Ninska","Description":"Bjelovarska/Ninska","Broj stalaka":5,"Broj bicikala":10,"Longitude":16.111052553412527,"Latitude":45.826996238164874,"Navigiraj do:":"https://goo.gl/maps/8jArVvUsjhFEo8xUA"},{"_id":7,"Name":"Borongaj 1","Description":"Borongaj 1","Broj stalaka":11,"Broj bicikala":22,"Longitude":16.01805936519571,"Latitude":45.81475282872266,"Navigiraj do:":"https://goo.gl/maps/mUqbAsDrUT4yXmxy8"},{"_id":8,"Name":"Borongaj 2","Description":"Borongaj 2","Broj stalaka":14,"Broj bicikala":28,"Longitude":16.01734053313677,"Latitude":45.81457616564602,"Navigiraj do:":"https://goo.gl/maps/mUqbAsDrUT4yXmxy9"},{"_id":9,"Name":"Borongaj 3","Description":"Borongaj 3","Broj stalaka":11,"Broj bicikala":22,"Longitude":16.016632765002182,"Latitude":45.814865229037814,"Navigiraj do:":"https://goo.gl/maps/mUqbAsDrUT4yXmxy10"},{"_id":10,"Name":"Boškovićeva - Porezna","Description":"Križanje Petrinjske i Boškovićeve","Broj stalaka":4,"Broj bicikala":8,"Longitude":15.980270058174108,"Latitude":45.80970298886002,"Navigiraj do:":"https://goo.gl/maps/cz98aky8TxM5j9jz9"},{"_id":11,"Name":"Boškovićeva 11","Description":"Boškovićeva 11","Broj stalaka":2,"Broj bicikala":4,"Longitude":15.981753989590366,"Latitude":45.80976071333316,"Navigiraj do:":"https://goo.gl/maps/B57q5SHoy25pkhRV8"},{"_id":12,"Name":"Branimirova 37","Description":"Branimirova 37","Broj stalaka":3,"Broj bicikala":6,"Longitude":15.986739881249362,"Latitude":45.8057366897148,"Navigiraj do:":"https://goo.gl/maps/54Yi44oN4jWcY17d7"},{"_id":13,"Name":"Ćirilometodska ulica","Description":"Ulica sv. Ćirila i Metoda","Broj stalaka":2,"Broj bicikala":4,"Longitude":15.973319168289219,"Latitude":45.815542257350174,"Navigiraj do:":"https://goo.gl/maps/axrKKucp3H13d3Po6"},{"_id":14,"Name":"Dinarska - Ljubljanica","Description":"Ugao Dinarske i ulice Ljubljanica","Broj stalaka":2,"Broj bicikala":4,"Longitude":15.934187946613015,"Latitude":45.796751948592174,"Navigiraj do:":"Ugao Dinarske i ulice Ljubljanica"},{"_id":15,"Name":"Divka Budaka 16","Description":"Divka Budaka 16","Broj stalaka":3,"Broj bicikala":6,"Longitude":16.01773166698755,"Latitude":45.81361166806532,"Navigiraj do:":"https://goo.gl/maps/aJD2qoVe3gh6RLZW8"},{"_id":16,"Name":"Dječji vrtić Jarun","Description":"Ulica Martina Pušteka","Broj stalaka":3,"Broj bicikala":6,"Longitude":15.93274109702366,"Latitude":45.78831516009243,"Navigiraj do:":"https://goo.gl/maps/5rgZWYj8WfkVtSGu7"},{"_id":17,"Name":"Donje Svetice 89","Description":"Donje Svetice 89","Broj stalaka":6,"Broj bicikala":12,"Longitude":16.0161117458088,"Latitude":45.80457836721447,"Navigiraj do:":"https://goo.gl/maps/mx5LUBcRpUsre5sX7"},{"_id":18,"Name":"Donji grad","Description":"Primorska","Broj stalaka":7,"Broj bicikala":14,"Longitude":15.960921494783701,"Latitude":45.8113088484967,"Navigiraj do:":"https://goo.gl/maps/aoYm7rZN8jz75zEb8"},{"_id":19,"Name":"Draškovićeva 13","Description":"Draškovićeva 13","Broj stalaka":4,"Broj bicikala":8,"Longitude":15.98363421879071,"Latitude":45.81244471500048,"Navigiraj do:":"https://goo.gl/maps/Qm8feNbGau2aKsZbA"},{"_id":20,"Name":"Dubravkin put, Ljetno kino","Description":"Dubravkin put","Broj stalaka":5,"Broj bicikala":10,"Longitude":15.972190818209915,"Latitude":45.81839916977509,"Navigiraj do:":"https://goo.gl/maps/J6esgehKaW35EvLj6"},{"_id":21,"Name":"Dukljaninova","Description":"Trg žrtava fažizma","Broj stalaka":3,"Broj bicikala":6,"Longitude":15.98808844017337,"Latitude":45.810452435926116,"Navigiraj do:":"https://goo.gl/maps/aQGuM5cnprmjRrLx6"},{"_id":22,"Name":"Ferenšćica I. 90","Description":"Ferenšćica I. 90","Broj stalaka":4,"Broj bicikala":8,"Longitude":16.02501634566353,"Latitude":45.802572748943746,"Navigiraj do:":"https://goo.gl/maps/Gt7TJLrb3qBkFWF67"},{"_id":23,"Name":"Frankopanska","Description":"Frankopanska 13","Broj stalaka":10,"Broj bicikala":20,"Longitude":15.969504677010383,"Latitude":45.81188432231945,"Navigiraj do:":"https://goo.gl/maps/Y7778xj24UyMDFpL8"},{"_id":24,"Name":"Gacka 16 - Ulix d.o.o.","Description":"Gacka 16","Broj stalaka":4,"Broj bicikala":8,"Longitude":15.975665039881774,"Latitude":45.79702741458873,"Navigiraj do:":"https://goo.gl/maps/3pDwuBCL6KHmFUAP8"},{"_id":25,"Name":"Gajeva 27 - Zg Forum","Description":"Gajeva ulica 27","Broj stalaka":3,"Broj bicikala":6,"Longitude":15.976541707457343,"Latitude":45.80968929557613,"Navigiraj do:":"https://goo.gl/maps/pYo1hHntf5iVZgYJA"},{"_id":26,"Name":"Grada Vukovara 56","Description":"Grada Vukovara 56","Broj stalaka":8,"Broj bicikala":16,"Longitude":15.967056009129768,"Latitude":45.79948631049532,"Navigiraj do:":"https://goo.gl/maps/DwpZQ7wAjqg4XQMW7"},{"_id":27,"Name":"Grada Vukovara 56 a","Description":"Grada Vukovara 56 a","Broj stalaka":8,"Broj bicikala":16,"Longitude":15.966099947837533,"Latitude":45.79944766378054,"Navigiraj do:":"https://goo.gl/maps/HxXQPwizhKXxp7Gt5"},{"_id":28,"Name":"Gradska ljekarna, Aleja lipa 2a","Description":"Aleja Lipa","Broj stalaka":3,"Broj bicikala":6,"Longitude":16.065531078787075,"Latitude":45.82761875752523,"Navigiraj do:":"https://goo.gl/maps/wz5voAnGfA3QxYma8"},{"_id":29,"Name":"Gradska ljekarna, Strojarska 16","Description":"Strojarska 16","Broj stalaka":3,"Broj bicikala":6,"Longitude":15.989481434470859,"Latitude":45.8028111550447,"Navigiraj do:":"https://goo.gl/maps/ciD68ixb7QsDL3aUA"},{"_id":30,"Name":"Gradska ljekarna, Ul. J. .Marohnića 3","Description":"Gradska ljekarna, Ul. J. .Marohnića 3","Broj stalaka":3,"Broj bicikala":6,"Longitude":15.969295186102988,"Latitude":45.792759530225545,"Navigiraj do:":"https://goo.gl/maps/VFj1ZjDzeKnFYQpp9"},{"_id":31,"Name":"Gradska ljekarna, Ul. Slavenskog 12","Description":"Ul. Slavenskog","Broj stalaka":6,"Broj bicikala":12,"Longitude":15.899292073155385,"Latitude":45.794855954399615,"Navigiraj do:":"https://goo.gl/maps/RHSjx4rF237virXo8"},{"_id":32,"Name":"Gradska ljekarna, Ulica hrvatskih iseljenika 1","Description":"Ulica hrvatskih iseljenika 1","Broj stalaka":4,"Broj bicikala":8,"Longitude":15.87479334400237,"Latitude":45.81567751672989,"Navigiraj do:":"https://goo.gl/maps/QQEfj2e7L1rwDq1q8"},{"_id":33,"Name":"Gradska ljekarna, Vidrićeva 38a","Description":"Gradska ljekarna, Vidrićeva 38a","Broj stalaka":3,"Broj bicikala":6,"Longitude":16.024622730938745,"Latitude":45.81241550304603,"Navigiraj do:":"https://goo.gl/maps/MEEJdVnFy4Lm7HzY6"},{"_id":34,"Name":"Gradska ljekarna, Vlaška 84","Description":"Ulica Koste Vojnovića - Vlaška","Broj stalaka":3,"Broj bicikala":6,"Longitude":15.991095788344927,"Latitude":45.81376832304255,"Navigiraj do:":"https://goo.gl/maps/yrs8QtZbC5P6JpLT8"},{"_id":35,"Name":"Gradska ljekarna, Zdeslava Turića 1","Description":"Ulica Zdeslava Turića","Broj stalaka":3,"Broj bicikala":6,"Longitude":16.00869490964301,"Latitude":45.78806424823087,"Navigiraj do:":"https://goo.gl/maps/AF32g2qTca2T57ds7"},{"_id":36,"Name":"Gundulićeva","Description":"Gundulićeva ulica 8","Broj stalaka":19,"Broj bicikala":38,"Longitude":15.972051099356996,"Latitude":45.812093008933715,"Navigiraj do:":"https://goo.gl/maps/2RboiHb1LbKJ1twc6"},{"_id":37,"Name":"Heinzelova 10","Description":"Heinzelova 10","Broj stalaka":2,"Broj bicikala":4,"Longitude":15.998712592010166,"Latitude":45.813030340275695,"Navigiraj do:":"https://goo.gl/maps/GRxREhhWtXqEN6gT8"},{"_id":38,"Name":"Heinzelova 16","Description":"Heinzelova 16","Broj stalaka":4,"Broj bicikala":8,"Longitude":15.999086088965422,"Latitude":45.812678170814145,"Navigiraj do:":"https://goo.gl/maps/g9SAdxaF8xw3rxnt7"},{"_id":39,"Name":"Heinzelova 20","Description":"Heinzelova 20","Broj stalaka":2,"Broj bicikala":4,"Longitude":15.999433770243604,"Latitude":45.81242344909111,"Navigiraj do:":"https://goo.gl/maps/Au7XVqtpPGmTgXeb7"},{"_id":40,"Name":"Heinzelova 47","Description":"Heinzelova 47","Broj stalaka":2,"Broj bicikala":4,"Longitude":16.00326432989558,"Latitude":45.80985289965743,"Navigiraj do:":"https://goo.gl/maps/bEgDumaCzQRRQM5s5"},{"_id":41,"Name":"Heinzelova 6","Description":"Heinzelova 6","Broj stalaka":2,"Broj bicikala":4,"Longitude":15.997903234740596,"Latitude":45.81379075649548,"Navigiraj do:":"https://goo.gl/maps/wB2d1YphXsHEHgz46"},{"_id":42,"Name":"Heinzelova 6a","Description":"Heinzelova 6a","Broj stalaka":2,"Broj bicikala":4,"Longitude":15.998037346230516,"Latitude":45.813654751493885,"Navigiraj do:":"https://goo.gl/maps/wB2d1YphXsHEHgz46"},{"_id":43,"Name":"Heinzlova 4a","Description":"Heinzelova 4a","Broj stalaka":2,"Broj bicikala":4,"Longitude":15.997659489277114,"Latitude":45.81398518175519,"Navigiraj do:":"https://goo.gl/maps/wB2d1YphXsHEHgz47"},{"_id":44,"Name":"Heinzlova 60","Description":"Heinzlova 60","Broj stalaka":3,"Broj bicikala":6,"Longitude":16.004052534918294,"Latitude":45.80828837231915,"Navigiraj do:":"https://goo.gl/maps/RtycYF1CphS23KEd8"},{"_id":45,"Name":"Heinzlova 60","Description":"Heinzlova 60","Broj stalaka":4,"Broj bicikala":8,"Longitude":16.003769561949134,"Latitude":45.80854755357007,"Navigiraj do:":"https://goo.gl/maps/RtycYF1CphS23KEd8"},{"_id":46,"Name":"Heinzlova 78b","Description":"Heinzlova 78b","Broj stalaka":3,"Broj bicikala":6,"Longitude":16.01171493577494,"Latitude":45.80145690135302,"Navigiraj do:":"https://goo.gl/maps/JF154dHf21mkVoPMA"},{"_id":47,"Name":"Heinzlova 96","Description":"Heinzlova 96","Broj stalaka":2,"Broj bicikala":4,"Longitude":16.013541519850484,"Latitude":45.79983614679541,"Navigiraj do:":"https://goo.gl/maps/vtPwh11cx8f3nTMz9"},{"_id":48,"Name":"HNB","Description":"HNB","Broj stalaka":15,"Broj bicikala":30,"Longitude":15.984961577208844,"Latitude":45.812134139085586,"Navigiraj do:":"https://goo.gl/maps/TCY6c4hY4VcLnCLcA"},{"_id":49,"Name":"HNB","Description":"HNB","Broj stalaka":25,"Broj bicikala":50,"Longitude":15.984742641430431,"Latitude":45.8121264269357,"Navigiraj do:":"https://goo.gl/maps/TCY6c4hY4VcLnCLcA"},{"_id":50,"Name":"I. gimnazija","Description":"Avenija Dubrovnik 36","Broj stalaka":20,"Broj bicikala":40,"Longitude":15.992734662015442,"Latitude":45.77750504590089,"Navigiraj do:":"https://goo.gl/maps/Y71Y61sLNx7MmDzY8"},{"_id":51,"Name":"Ilica - Črnomerec","Description":"Ilica - Črnomerec","Broj stalaka":2,"Broj bicikala":4,"Longitude":15.936012299771262,"Latitude":45.81513160117864,"Navigiraj do:":"https://goo.gl/maps/goafNYocZRmEjdTs6"},{"_id":52,"Name":"Ilica 298/2","Description":"Ilica 298/2","Broj stalaka":1,"Broj bicikala":2,"Longitude":15.928491400757013,"Latitude":45.813890301261964,"Navigiraj do:":"https://goo.gl/maps/CkonqmHT7wnBhfm48"},{"_id":53,"Name":"Jarunska ulica","Description":"Jarunska ulica","Broj stalaka":10,"Broj bicikala":20,"Longitude":15.944150666120638,"Latitude":45.78367656196856,"Navigiraj do:":"https://goo.gl/maps/sjwReTQZFcfSRpcn7"},{"_id":54,"Name":"Jarunska ulica","Description":"Jarunska ulica","Broj stalaka":5,"Broj bicikala":10,"Longitude":15.944395959899166,"Latitude":45.78362277458018,"Navigiraj do:":"https://goo.gl/maps/sjwReTQZFcfSRpcn7"},{"_id":55,"Name":"Joze Laurenčića 8","Description":"Joze Laurenčića 8","Broj stalaka":3,"Broj bicikala":6,"Longitude":16.004359878725943,"Latitude":45.793256174330054,"Navigiraj do:":"https://goo.gl/maps/khpPDnxbzEtCQJgc8"},{"_id":56,"Name":"Jurišićeva 13","Description":"Jurišićeva 13","Broj stalaka":3,"Broj bicikala":6,"Longitude":15.980712286686114,"Latitude":45.81240218271131,"Navigiraj do:":"https://goo.gl/maps/Eg3VhihxJCWGYs9y8"},{"_id":57,"Name":"Jurišićeva 15","Description":"Jurišićeva 15","Broj stalaka":4,"Broj bicikala":8,"Longitude":15.981271863226505,"Latitude":45.81236946602029,"Navigiraj do:":"https://goo.gl/maps/gCQ4QUgLBTiNMCwe9"},{"_id":58,"Name":"Kampus Borongaj","Description":"Kampus Borongaj","Broj stalaka":17,"Broj bicikala":34,"Longitude":16.041923591532292,"Latitude":45.812489252618924,"Navigiraj do:":"https://goo.gl/maps/S68bRG5ofWjeESKq7"},{"_id":59,"Name":"Karela Zahradnika 8","Description":"Karela Zahradnika 8","Broj stalaka":5,"Broj bicikala":10,"Longitude":15.986583307120007,"Latitude":45.76266110777662,"Navigiraj do:":"https://goo.gl/maps/KTPKPXXRKKf1sneg8"},{"_id":60,"Name":"KDVL","Description":"Trg Stjepana Radića 4","Broj stalaka":8,"Broj bicikala":16,"Longitude":15.98070802641997,"Latitude":45.8008611263648,"Navigiraj do:":"https://goo.gl/maps/YvTG6kvsXiskhp7x8"},{"_id":61,"Name":"Kennedyev trg 11","Description":"Kennedyev trg 11","Broj stalaka":2,"Broj bicikala":4,"Longitude":16.00853316453414,"Latitude":45.8148033040575,"Navigiraj do:":"https://goo.gl/maps/Bpjoz96PDQUwZyRk7"},{"_id":62,"Name":"Kennedyev trg 3","Description":"Kennedyjev trg 3","Broj stalaka":6,"Broj bicikala":12,"Longitude":16.00984610553575,"Latitude":45.81589715259319,"Navigiraj do:":"https://goo.gl/maps/xiQTFnKSeSDBTMcb7"},{"_id":63,"Name":"Kneza Višeslava","Description":"Kneza Višeslava (jugozapadna strana parka)","Broj stalaka":3,"Broj bicikala":6,"Longitude":15.990515090054398,"Latitude":45.808030124298156,"Navigiraj do:":"https://goo.gl/maps/H9GdqXzhkAfjq1C7A"},{"_id":64,"Name":"Kraljevec","Description":"Kraljevec","Broj stalaka":4,"Broj bicikala":8,"Longitude":15.968781019900764,"Latitude":45.83062034070676,"Navigiraj do:":"https://goo.gl/maps/kpCz2xF2uWArKDcV7"},{"_id":65,"Name":"Langov trg","Description":"Javna garaža Langov trg","Broj stalaka":4,"Broj bicikala":8,"Longitude":15.981685614054754,"Latitude":45.814454206008925,"Navigiraj do:":"https://goo.gl/maps/trQfQwsyh8bvmf8n9"},{"_id":66,"Name":"Maksimirska 58A","Description":"Maksimirska 58A","Broj stalaka":5,"Broj bicikala":10,"Longitude":16.004702635068558,"Latitude":45.81681268782684,"Navigiraj do:":"https://goo.gl/maps/bRu67CD34XiKdmhB6"},{"_id":67,"Name":"Martićeva","Description":"Javna garaža Martićeva","Broj stalaka":7,"Broj bicikala":14,"Longitude":15.997213482969459,"Latitude":45.81322019763333,"Navigiraj do:":"https://goo.gl/maps/iAJGP2G825WXYJAq9"},{"_id":68,"Name":"Marulićev trg 19","Description":"Marulićev trg 19","Broj stalaka":10,"Broj bicikala":20,"Longitude":15.969423875415314,"Latitude":45.80693752335091,"Navigiraj do:":"https://goo.gl/maps/8NJXyLKQDKqFFWcN6"},{"_id":69,"Name":"Masarykova","Description":"Masarykova ulica","Broj stalaka":4,"Broj bicikala":8,"Longitude":15.973889083146348,"Latitude":45.811167815094485,"Navigiraj do:":"https://goo.gl/maps/Ejb8cWEPa14TNFc5A"},{"_id":70,"Name":"Metalčeva - Hotel Panorama","Description":"Metalčeva ulica","Broj stalaka":8,"Broj bicikala":16,"Longitude":15.952893111320364,"Latitude":45.80608465083306,"Navigiraj do:":"https://goo.gl/maps/Zso9pUhJjJB1pzPd8"},{"_id":71,"Name":"Metalčeva 5","Description":"Metalčeva ulica","Broj stalaka":4,"Broj bicikala":8,"Longitude":15.952886405076878,"Latitude":45.80596498721962,"Navigiraj do:":"https://goo.gl/maps/L2etskYEQbLpP6B3A"},{"_id":72,"Name":"Mihanovićeva","Description":"Mihanovićeva 3","Broj stalaka":5,"Broj bicikala":10,"Longitude":15.974732560693559,"Latitude":45.805497281532226,"Navigiraj do:":"https://goo.gl/maps/x9sKdn1JVCUoFJAc8"},{"_id":73,"Name":"Ministarstvo hrvatskih branitelja","Description":"Ministarstvo hrvatskih branitelja","Broj stalaka":11,"Broj bicikala":22,"Longitude":15.960114598545735,"Latitude":45.797180991671304,"Navigiraj do:":"https://goo.gl/maps/YfB1FWyH6FhjUNi46"},{"_id":74,"Name":"Mirogoj","Description":"Aleja Hermanna Bollea","Broj stalaka":4,"Broj bicikala":8,"Longitude":15.98378301023829,"Latitude":45.83605514128989,"Navigiraj do:":"https://goo.gl/maps/kvJ6SVwR7CEctWscA"},{"_id":75,"Name":"Močvara","Description":"Močvara","Broj stalaka":20,"Broj bicikala":40,"Longitude":15.97673560214137,"Latitude":45.791009356415216,"Navigiraj do:":"https://goo.gl/maps/cfM2A7kypT2C4VZF9"},{"_id":76,"Name":"Mr. Bean","Description":"Ulica grada Vukovara 226","Broj stalaka":4,"Broj bicikala":8,"Longitude":15.987894907698587,"Latitude":45.80014515498272,"Navigiraj do:":"https://goo.gl/maps/T1Vt8L2ZwJzm5wK28"},{"_id":77,"Name":"MSU","Description":"Avenija Dubrovnik 17","Broj stalaka":10,"Broj bicikala":20,"Longitude":15.982022881871659,"Latitude":45.778338818826896,"Navigiraj do:":"https://goo.gl/maps/mwE5uBmwXsCpfvNDA"},{"_id":78,"Name":"MUP  Heinzlova","Description":"Heinzlova 98","Broj stalaka":8,"Broj bicikala":16,"Longitude":16.01581804417544,"Latitude":45.797897445329426,"Navigiraj do:":"https://goo.gl/maps/DrgktjT4xmhsreMu8"},{"_id":79,"Name":"MUP Heinzlova","Description":"Ulica Vjekoslava Heinzela","Broj stalaka":8,"Broj bicikala":16,"Longitude":16.01580661844658,"Latitude":45.79748143863578,"Navigiraj do:":"https://goo.gl/maps/DrgktjT4xmhsreMu8"},{"_id":80,"Name":"Nastavni Zavod za hitnu medicinu Grada Zagreba","Description":"Radnička cesta","Broj stalaka":20,"Broj bicikala":40,"Longitude":16.01222519992213,"Latitude":45.80001307048315,"Navigiraj do:":"https://goo.gl/maps/djYZEvxHbvSBSmoMA"},{"_id":81,"Name":"Ninska - Željeznička stanica Sesvete","Description":"Ninska ulica","Broj stalaka":7,"Broj bicikala":14,"Longitude":16.109721738454493,"Latitude":45.82529434715102,"Navigiraj do:":"https://goo.gl/maps/PRuUeDwW32u54S2N6"},{"_id":82,"Name":"NSK","Description":"Hrvatske Bratske Zajednice 4","Broj stalaka":3,"Broj bicikala":6,"Longitude":15.978505835158263,"Latitude":45.79741381101232,"Navigiraj do:":"https://goo.gl/maps/DbGxkjKJTQZkUuqSA"},{"_id":83,"Name":"NSK 2","Description":"Hrvatske Bratske Zajednice 4","Broj stalaka":2,"Broj bicikala":4,"Longitude":15.978547409792904,"Latitude":45.79630346975726,"Navigiraj do:":"https://goo.gl/maps/DbGxkjKJTQZkUuqSA"},{"_id":84,"Name":"Obala dr. Savke Dabčević Kučar","Description":"Obala dr. Savke Dabčević Kučar / Boćarski dom","Broj stalaka":7,"Broj bicikala":14,"Longitude":15.958068403813733,"Latitude":45.787217059016015,"Navigiraj do:":"https://goo.gl/maps/1iqpDvRkEwg44kzR7"},{"_id":85,"Name":"Obala Trnjanskih branitelja","Description":"Obala Trnjanskih branitelja","Broj stalaka":4,"Broj bicikala":8,"Longitude":15.987943493712974,"Latitude":45.79004599854885,"Navigiraj do:":"https://goo.gl/maps/2fiZh8n6FAbV2mmLA"},{"_id":86,"Name":"Obala Trnjanskih branitelja","Description":"Obala Trnjanskih branitelja","Broj stalaka":5,"Broj bicikala":10,"Longitude":15.989359153438711,"Latitude":45.78987109316428,"Navigiraj do:":"https://goo.gl/maps/2fiZh8n6FAbV2mmLA"},{"_id":87,"Name":"Okretište autobusa Dubrava","Description":"Okretište autobusa Dubrava","Broj stalaka":6,"Broj bicikala":12,"Longitude":16.03682108227188,"Latitude":45.82512309018103,"Navigiraj do:":"https://goo.gl/maps/MMiCFj7om9dg8Ajq8"},{"_id":88,"Name":"Okretište Dubec","Description":"Okretište Dubec","Broj stalaka":6,"Broj bicikala":12,"Longitude":16.0773891588213,"Latitude":45.82801147378126,"Navigiraj do:":"https://goo.gl/maps/3KFBGqND1eFUkpBx6"},{"_id":89,"Name":"Okretište Dubrava","Description":"Okretište tramvaja Dubrava (pored ZETa)","Broj stalaka":6,"Broj bicikala":12,"Longitude":16.036766432432426,"Latitude":45.82438268817438,"Navigiraj do:":"https://goo.gl/maps/MMiCFj7om9dg8Ajq8"},{"_id":90,"Name":"Okretište tramvaja Prečko","Description":"Ulica Savska Opatovina","Broj stalaka":3,"Broj bicikala":6,"Longitude":15.892280784976368,"Latitude":45.793843288171644,"Navigiraj do:":"https://goo.gl/maps/2z1WvfAGk1TiKSSq8"},{"_id":91,"Name":"Osnovna škola \"Gustav Krklec\"","Description":"Ulica Božidara Magovca","Broj stalaka":10,"Broj bicikala":20,"Longitude":15.998930848975093,"Latitude":45.76991029824052,"Navigiraj do:":"https://goo.gl/maps/P144qcUPeVehj9xs9"},{"_id":92,"Name":"Osnovna škola Grigor Vitez","Description":"Kruge 46","Broj stalaka":3,"Broj bicikala":6,"Longitude":15.986641645603662,"Latitude":45.798159245800754,"Navigiraj do:":"https://goo.gl/maps/yb3x7KiUtDGKsavdA"},{"_id":93,"Name":"Osnovna škola Julija Klovića","Description":"Osnovna škola Julija Klovića","Broj stalaka":10,"Broj bicikala":20,"Longitude":15.955928676187757,"Latitude":45.79693835326367,"Navigiraj do:":"https://goo.gl/maps/WDvoV8FEMMaF1goH7"},{"_id":94,"Name":"Osnovna škola  Dragutina Domjanića","Description":"Gajnice 31","Broj stalaka":10,"Broj bicikala":20,"Longitude":15.871567129210876,"Latitude":45.81805472985538,"Navigiraj do:":"https://goo.gl/maps/YvxzH4BNbxgtfDn6A"},{"_id":95,"Name":"Ozaljska ulica kod k.br. 150","Description":"Ozaljska ulica kod k.br. 150","Broj stalaka":6,"Broj bicikala":12,"Longitude":15.938331461771815,"Latitude":45.797349976114496,"Navigiraj do:":"https://goo.gl/maps/H9TcPCeBq1Y7ShpB9"},{"_id":96,"Name":"Park Stara Trešnjevka 2","Description":"Park Stara Trešnjevka","Broj stalaka":6,"Broj bicikala":12,"Longitude":15.948876391203514,"Latitude":45.797670271160804,"Navigiraj do:":"https://goo.gl/maps/QE11Pd7ayCVtcSQH9"},{"_id":97,"Name":"Park Stara Trešnjevka 2","Description":"Park Stara Trešnjevka","Broj stalaka":5,"Broj bicikala":10,"Longitude":15.949417459620737,"Latitude":45.79776131631786,"Navigiraj do:":"https://goo.gl/maps/QE11Pd7ayCVtcSQH9"},{"_id":98,"Name":"Petrinjska - Boškovićeva","Description":"Križanje Petrinjske i Boškovćeve","Broj stalaka":6,"Broj bicikala":12,"Longitude":15.98017517444068,"Latitude":45.80968102152135,"Navigiraj do:":"https://goo.gl/maps/hzRpDmb45gvM6RK9A"},{"_id":99,"Name":"Petrinjska 6","Description":"Petrinjska 6","Broj stalaka":5,"Broj bicikala":10,"Longitude":15.979420468692563,"Latitude":45.811735926742855,"Navigiraj do:":"https://goo.gl/maps/j5x4R5Hoe8Hffm1S7"},{"_id":100,"Name":"Pod zidom","Description":"Harmica","Broj stalaka":3,"Broj bicikala":6,"Longitude":15.977402520749422,"Latitude":45.81374990411652,"Navigiraj do:":"https://goo.gl/maps/etSUDYh3W1BjYoLc7"}], "_links": {"start": "/api/3/action/datastore_search?resource_id=38028d1a-dc59-4023-bc87-6b8fa22c6951", "next": "/api/3/action/datastore_search?offset=100&resource_id=38028d1a-dc59-4023-bc87-6b8fa22c6951"}, "total": 175}}